2018-12-09 10:34:52 ERROR MainController:61 - error is java.lang.NullPointerException
2018-12-09 10:36:23 DEBUG MainController:42 - In userexits method: admin
2018-12-09 10:36:25 ERROR MainController:61 - error is java.lang.NullPointerException
2018-12-09 10:36:47 DEBUG MainController:42 - In userexits method: admin
2018-12-09 10:36:49 ERROR MainController:61 - error is java.lang.NullPointerException
2018-12-09 10:37:34 DEBUG MainController:42 - In userexits method: admin
2018-12-09 10:37:36 ERROR MainController:61 - error is java.lang.NullPointerException
2018-12-09 10:38:30 DEBUG MainController:42 - In userexits method: admin
2018-12-09 10:38:30 ERROR MainController:61 - error is java.lang.NullPointerException
2018-12-09 10:39:53 DEBUG MainController:42 - In userexits method: admin
2018-12-09 10:39:53 INFO  MainController:52 - user exists
2018-12-09 10:49:55 DEBUG MainController:42 - In userexits method: admin
2018-12-09 10:49:55 INFO  MainController:52 - user exists
2018-12-09 10:52:07 DEBUG MainController:42 - In userexits method: admin
2018-12-09 10:52:08 INFO  MainController:52 - user exists
2018-12-09 10:53:14 DEBUG MainController:42 - In userexits method: admin
2018-12-09 10:53:14 INFO  MainController:52 - user exists
2018-12-09 10:57:02 DEBUG MainController:42 - In userexits method: admin
2018-12-09 10:57:02 INFO  MainController:52 - user exists
2018-12-09 10:57:54 DEBUG MainController:42 - In userexits method: admin
2018-12-09 10:57:54 INFO  MainController:52 - user exists
2018-12-09 10:58:49 DEBUG MainController:42 - In userexits method: admin
2018-12-09 10:58:49 INFO  MainController:52 - user exists
2018-12-09 11:01:13 DEBUG MainController:42 - In userexits method: admin
2018-12-09 11:01:14 INFO  MainController:52 - user exists
2018-12-09 11:03:25 DEBUG MainController:42 - In userexits method: admin
2018-12-09 11:03:25 INFO  MainController:52 - user exists
2018-12-09 11:03:32 DEBUG MainController:42 - In userexits method: admin
2018-12-09 11:03:32 INFO  MainController:52 - user exists
2018-12-09 12:09:14 DEBUG MainController:42 - In userexits method: admin
2018-12-09 12:09:14 INFO  MainController:52 - user exists
2018-12-09 12:23:37 DEBUG MainController:42 - In userexits method: admin
2018-12-09 12:23:37 INFO  MainController:52 - user exists
2018-12-09 12:25:57 DEBUG MainController:42 - In userexits method: admin
2018-12-09 12:25:58 INFO  MainController:52 - user exists
2018-12-09 12:31:46 DEBUG MainController:42 - In userexits method: admin
2018-12-09 12:31:46 INFO  MainController:52 - user exists
2018-12-09 12:34:51 DEBUG MainController:42 - In userexits method: admin
2018-12-09 12:34:51 INFO  MainController:52 - user exists
2018-12-09 12:39:38 DEBUG MainController:42 - In userexits method: admin
2018-12-09 12:39:38 INFO  MainController:52 - user exists
2018-12-09 12:40:43 DEBUG MainController:42 - In userexits method: admin
2018-12-09 12:40:43 INFO  MainController:52 - user exists
2018-12-09 13:01:36 DEBUG MainController:42 - In userexits method: admin
2018-12-09 13:01:36 INFO  MainController:52 - user exists
2018-12-09 13:29:16 DEBUG MainController:42 - In userexits method: admin
2018-12-09 13:29:16 INFO  MainController:52 - user exists
2018-12-09 13:29:25 DEBUG MainController:42 - In userexits method: admin
2018-12-09 13:29:25 INFO  MainController:52 - user exists
2018-12-09 13:34:34 DEBUG MainController:43 - In userexits method: admin
2018-12-09 13:34:34 INFO  MainController:53 - user exists
2018-12-09 16:06:36 DEBUG MainController:43 - In userexits method: admin
2018-12-09 16:06:36 INFO  MainController:53 - user exists
2018-12-09 16:08:11 DEBUG MainController:43 - In userexits method: admin
2018-12-09 16:08:11 INFO  MainController:53 - user exists
2018-12-09 16:18:06 DEBUG MainController:43 - In userexits method: admin
2018-12-09 16:18:07 INFO  MainController:53 - user exists
2018-12-09 16:29:51 DEBUG MainController:43 - In userexits method: admin
2018-12-09 16:29:51 INFO  MainController:53 - user exists
2018-12-09 17:16:09 DEBUG MainController:43 - In userexits method: admin
2018-12-09 17:16:09 INFO  MainController:53 - user exists
2018-12-09 17:25:22 DEBUG MainController:43 - In userexits method: admin
2018-12-09 17:25:22 INFO  MainController:53 - user exists
2018-12-09 17:26:01 DEBUG MainController:43 - In userexits method: admin
2018-12-09 17:26:02 INFO  MainController:53 - user exists
2018-12-09 17:26:45 DEBUG MainController:43 - In userexits method: admin
2018-12-09 17:26:45 INFO  MainController:53 - user exists
2018-12-09 17:46:28 DEBUG MainController:43 - In userexits method: admin
2018-12-09 17:46:28 INFO  MainController:53 - user exists
2018-12-09 17:47:42 DEBUG MainController:43 - In userexits method: admin
2018-12-09 17:47:42 INFO  MainController:53 - user exists
2018-12-09 18:29:31 DEBUG MainController:43 - In userexits method: admin
2018-12-09 18:29:31 INFO  MainController:53 - user exists
2018-12-09 18:30:43 DEBUG MainController:43 - In userexits method: admin
2018-12-09 18:30:43 INFO  MainController:53 - user exists
