2018-11-25 03:26:48 INFO  MainController:48 - user exists
2018-11-25 04:00:25 DEBUG MainController:38 - In userexits method: admin
2018-11-25 04:00:25 ERROR MainController:57 - error is java.lang.NullPointerException
2018-11-25 04:05:25 DEBUG MainController:38 - In userexits method: admin
2018-11-25 04:06:17 DEBUG MainController:38 - In userexits method: mahfuz
2018-11-25 04:06:22 DEBUG MainController:38 - In userexits method: mahfuz
2018-11-25 05:03:34 DEBUG MainController:38 - In userexits method: admin
2018-11-25 06:23:02 DEBUG MainController:38 - In userexits method: admin
2018-11-25 06:23:03 ERROR MainController:57 - error is java.lang.NullPointerException
2018-11-25 06:23:23 DEBUG MainController:38 - In userexits method: admin
2018-11-25 06:23:23 ERROR MainController:57 - error is java.lang.NullPointerException
2018-11-25 06:23:41 DEBUG MainController:38 - In userexits method: admin
2018-11-25 06:23:41 ERROR MainController:57 - error is java.lang.NullPointerException
2018-11-25 06:24:05 DEBUG MainController:38 - In userexits method: mahfuz
2018-11-25 06:24:05 ERROR MainController:57 - error is java.lang.NullPointerException
2018-11-25 06:25:56 DEBUG MainController:38 - In userexits method: admin
2018-11-25 06:28:46 DEBUG MainController:38 - In userexits method: admin
2018-11-25 06:32:33 DEBUG MainController:38 - In userexits method: admin
2018-11-25 06:32:34 INFO  MainController:48 - user exists
2018-11-29 13:16:02 DEBUG MainController:38 - In userexits method: admin
2018-11-29 13:16:03 INFO  MainController:48 - user exists
2018-11-29 13:28:10 DEBUG MainController:38 - In userexits method: admin
2018-11-29 13:28:11 INFO  MainController:48 - user exists
2018-11-29 13:33:27 DEBUG MainController:38 - In userexits method: admin
2018-11-29 13:33:27 INFO  MainController:48 - user exists
2018-11-29 13:51:42 DEBUG MainController:38 - In userexits method: admin
2018-11-29 13:51:42 INFO  MainController:48 - user exists
2018-11-29 13:51:51 DEBUG MainController:38 - In userexits method: admin
2018-11-29 13:51:51 INFO  MainController:48 - user exists
2018-11-29 13:54:12 DEBUG MainController:38 - In userexits method: admin
2018-11-29 13:54:12 INFO  MainController:48 - user exists
2018-11-29 14:03:11 DEBUG MainController:39 - In userexits method: admin
2018-11-29 14:03:12 INFO  MainController:49 - user exists
2018-11-29 14:04:10 DEBUG MainController:39 - In userexits method: admin
2018-11-29 14:04:10 INFO  MainController:49 - user exists
2018-11-29 14:08:37 DEBUG MainController:39 - In userexits method: admin
2018-11-29 14:08:37 INFO  MainController:49 - user exists
2018-12-02 09:45:47 DEBUG MainController:39 - In userexits method: admin
2018-12-02 09:45:47 INFO  MainController:49 - user exists
2018-12-02 11:58:16 DEBUG MainController:42 - In userexits method: admin
2018-12-02 11:58:17 INFO  MainController:52 - user exists
2018-12-02 12:12:29 DEBUG MainController:42 - In userexits method: adin
2018-12-02 12:12:30 ERROR MainController:61 - error is java.lang.NullPointerException
2018-12-02 12:12:36 DEBUG MainController:42 - In userexits method: adin
2018-12-02 12:12:36 ERROR MainController:61 - error is java.lang.NullPointerException
2018-12-02 12:13:55 DEBUG MainController:42 - In userexits method: admin
2018-12-02 12:13:55 INFO  MainController:52 - user exists
2018-12-02 12:14:16 DEBUG MainController:42 - In userexits method: admin
2018-12-02 12:14:16 INFO  MainController:52 - user exists
2018-12-02 12:15:02 DEBUG MainController:42 - In userexits method: admin
2018-12-02 12:15:02 INFO  MainController:52 - user exists
2018-12-02 12:17:10 DEBUG MainController:42 - In userexits method: admin
2018-12-02 12:20:28 INFO  MainController:52 - user exists
2018-12-02 12:21:34 DEBUG MainController:42 - In userexits method: admin
2018-12-02 12:22:18 INFO  MainController:52 - user exists
2018-12-06 18:57:03 DEBUG MainController:42 - In userexits method: admin
2018-12-06 18:57:06 INFO  MainController:52 - user exists
2018-12-06 19:02:23 DEBUG MainController:42 - In userexits method: admin
2018-12-06 19:02:23 INFO  MainController:52 - user exists
2018-12-06 19:04:40 DEBUG MainController:42 - In userexits method: admin
2018-12-06 19:04:40 INFO  MainController:52 - user exists
2018-12-06 19:08:42 DEBUG MainController:42 - In userexits method: admin
2018-12-06 19:08:42 INFO  MainController:52 - user exists
2018-12-06 20:11:11 DEBUG MainController:42 - In userexits method: admin
2018-12-06 20:11:12 INFO  MainController:52 - user exists
2018-12-06 20:20:03 DEBUG MainController:42 - In userexits method: admin
2018-12-06 20:20:03 INFO  MainController:52 - user exists
2018-12-06 20:22:51 DEBUG MainController:42 - In userexits method: admin
2018-12-06 20:22:51 INFO  MainController:52 - user exists
2018-12-06 20:27:45 DEBUG MainController:42 - In userexits method: admin
2018-12-06 20:27:45 INFO  MainController:52 - user exists
2018-12-06 20:29:51 DEBUG MainController:42 - In userexits method: admin
2018-12-06 20:29:51 INFO  MainController:52 - user exists
2018-12-09 10:34:50 DEBUG MainController:42 - In userexits method: admin
