2018-12-09 18:30:59 DEBUG MainController:43 - In userexits method: admin
2018-12-09 18:30:59 INFO  MainController:53 - user exists
2018-12-09 18:31:00 DEBUG MainController:43 - In userexits method: admin
2018-12-09 18:31:00 INFO  MainController:53 - user exists
2018-12-09 18:31:00 DEBUG MainController:43 - In userexits method: admin
2018-12-09 18:31:00 INFO  MainController:53 - user exists
2018-12-09 18:31:00 DEBUG MainController:43 - In userexits method: admin
2018-12-09 18:31:00 INFO  MainController:53 - user exists
2018-12-09 18:31:00 DEBUG MainController:43 - In userexits method: admin
2018-12-09 18:31:00 INFO  MainController:53 - user exists
2018-12-09 18:31:01 DEBUG MainController:43 - In userexits method: admin
2018-12-09 18:31:01 INFO  MainController:53 - user exists
2018-12-09 18:31:01 DEBUG MainController:43 - In userexits method: admin
2018-12-09 18:31:01 INFO  MainController:53 - user exists
2018-12-09 18:32:06 DEBUG MainController:43 - In userexits method: admin
2018-12-09 18:32:06 INFO  MainController:53 - user exists
2018-12-09 18:34:50 DEBUG MainController:43 - In userexits method: admin
2018-12-09 18:34:50 INFO  MainController:53 - user exists
2018-12-09 18:36:29 DEBUG MainController:43 - In userexits method: admin
2018-12-09 18:36:29 INFO  MainController:53 - user exists
2018-12-09 18:38:55 DEBUG MainController:43 - In userexits method: admin
2018-12-09 18:38:55 INFO  MainController:53 - user exists
2018-12-09 21:53:53 DEBUG MainController:43 - In userexits method: admin
2018-12-09 21:53:53 INFO  MainController:53 - user exists
2018-12-09 21:58:44 DEBUG MainController:43 - In userexits method: admin
2018-12-09 21:58:44 INFO  MainController:53 - user exists
2018-12-09 21:58:59 DEBUG MainController:43 - In userexits method: admin
2018-12-09 21:58:59 INFO  MainController:53 - user exists
2018-12-09 21:59:00 DEBUG MainController:43 - In userexits method: admin
2018-12-09 21:59:00 INFO  MainController:53 - user exists
2018-12-09 21:59:39 DEBUG MainController:43 - In userexits method: admin
2018-12-09 21:59:39 INFO  MainController:53 - user exists
2018-12-09 22:01:05 DEBUG MainController:43 - In userexits method: admin
2018-12-09 22:01:05 INFO  MainController:53 - user exists
2018-12-09 22:01:15 DEBUG MainController:43 - In userexits method: admin
2018-12-09 22:01:15 INFO  MainController:53 - user exists
2018-12-09 22:01:15 DEBUG MainController:43 - In userexits method: admin
2018-12-09 22:01:15 INFO  MainController:53 - user exists
2018-12-09 22:01:15 DEBUG MainController:43 - In userexits method: admin
2018-12-09 22:01:15 INFO  MainController:53 - user exists
2018-12-09 22:01:19 DEBUG MainController:43 - In userexits method: admin
2018-12-09 22:01:19 INFO  MainController:53 - user exists
2018-12-09 22:01:19 DEBUG MainController:43 - In userexits method: admin
2018-12-09 22:01:19 INFO  MainController:53 - user exists
2018-12-09 22:01:19 DEBUG MainController:43 - In userexits method: admin
2018-12-09 22:01:19 INFO  MainController:53 - user exists
2018-12-09 22:01:20 DEBUG MainController:43 - In userexits method: admin
2018-12-09 22:01:20 INFO  MainController:53 - user exists
2018-12-09 22:01:20 DEBUG MainController:43 - In userexits method: admin
2018-12-09 22:01:20 INFO  MainController:53 - user exists
2018-12-09 22:01:21 DEBUG MainController:43 - In userexits method: admin
2018-12-09 22:01:21 INFO  MainController:53 - user exists
2018-12-09 22:01:21 DEBUG MainController:43 - In userexits method: admin
2018-12-09 22:01:21 INFO  MainController:53 - user exists
2018-12-09 22:01:22 DEBUG MainController:43 - In userexits method: admin
2018-12-09 22:01:22 INFO  MainController:53 - user exists
2018-12-09 22:01:22 DEBUG MainController:43 - In userexits method: admin
2018-12-09 22:01:22 INFO  MainController:53 - user exists
2018-12-09 22:01:23 DEBUG MainController:43 - In userexits method: admin
2018-12-09 22:01:23 INFO  MainController:53 - user exists
2018-12-09 22:01:23 DEBUG MainController:43 - In userexits method: admin
2018-12-09 22:01:23 INFO  MainController:53 - user exists
2018-12-09 22:01:24 DEBUG MainController:43 - In userexits method: admin
2018-12-09 22:01:24 INFO  MainController:53 - user exists
2018-12-09 22:01:24 DEBUG MainController:43 - In userexits method: admin
2018-12-09 22:01:24 INFO  MainController:53 - user exists
2018-12-09 22:01:25 DEBUG MainController:43 - In userexits method: admin
2018-12-09 22:01:25 INFO  MainController:53 - user exists
2018-12-09 22:01:25 DEBUG MainController:43 - In userexits method: admin
2018-12-09 22:01:25 INFO  MainController:53 - user exists
2018-12-09 22:01:26 DEBUG MainController:43 - In userexits method: admin
2018-12-09 22:01:26 INFO  MainController:53 - user exists
2018-12-09 22:01:26 DEBUG MainController:43 - In userexits method: admin
2018-12-09 22:01:26 INFO  MainController:53 - user exists
2018-12-09 22:01:26 DEBUG MainController:43 - In userexits method: admin
2018-12-09 22:01:26 INFO  MainController:53 - user exists
2018-12-09 22:01:27 DEBUG MainController:43 - In userexits method: admin
